-------------------------------------------------------------------------------
Test set: com.luxoft.dnepr.courses.unit3.view.CommandLineInterfaceTest
-------------------------------------------------------------------------------
Tests run: 3, Failures: 0, Errors: 0, Skipped: 0, Time elapsed: 11.062 sec
