-------------------------------------------------------------------------------
Test set: com.luxoft.dnepr.courses.regular.unit5.EmployeeDaoImplTest
-------------------------------------------------------------------------------
Tests run: 1, Failures: 0, Errors: 0, Skipped: 0, Time elapsed: 0 sec
