-------------------------------------------------------------------------------
Test set: com.luxoft.dnepr.courses.regular.unit2.BillTest
-------------------------------------------------------------------------------
Tests run: 3, Failures: 0, Errors: 0, Skipped: 0, Time elapsed: 0.094 sec
