-------------------------------------------------------------------------------
Test set: com.luxoft.dnepr.courses.regular.unit7._WordStorageTest
-------------------------------------------------------------------------------
Tests run: 2, Failures: 0, Errors: 0, Skipped: 0, Time elapsed: 0 sec
