<?xml version="1.0" encoding="UTF-8" ?>
<testsuite failures="0" time="0" errors="0" skipped="0" tests="11" name="com.luxoft.dnepr.courses.compiler.EmulatorTest">
  <properties>
    <property name="java.runtime.name" value="Java(TM) SE Runtime Environment"/>
    <property name="sun.boot.library.path" value="c:\Program Files\Java\jdk1.7.0_13\jre\bin"/>
    <property name="java.vm.version" value="23.7-b01"/>
    <property name="java.vm.vendor" value="Oracle Corporation"/>
    <property name="java.vendor.url" value="http://java.oracle.com/"/>
    <property name="path.separator" value=";"/>
    <property name="guice.disable.misplaced.annotation.check" value="true"/>
    <property name="java.vm.name" value="Java HotSpot(TM) Client VM"/>
    <property name="file.encoding.pkg" value="sun.io"/>
    <property name="user.script" value=""/>
    <property name="user.country" value="RU"/>
    <property name="sun.java.launcher" value="SUN_STANDARD"/>
    <property name="sun.os.patch.level" value="Service Pack 3"/>
    <property name="java.vm.specification.name" value="Java Virtual Machine Specification"/>
    <property name="user.dir" value="D:\_v\Java\My_project\dnepr-luxoft-courses-2013-tsbornova"/>
    <property name="java.runtime.version" value="1.7.0_13-b20"/>
    <property name="java.awt.graphicsenv" value="sun.awt.Win32GraphicsEnvironment"/>
    <property name="java.endorsed.dirs" value="c:\Program Files\Java\jdk1.7.0_13\jre\lib\endorsed"/>
    <property name="os.arch" value="x86"/>
    <property name="java.io.tmpdir" value="C:\DOCUME~1\1\LOCALS~1\Temp\"/>
    <property name="line.separator" value="
"/>
    <property name="java.vm.specification.vendor" value="Oracle Corporation"/>
    <property name="user.variant" value=""/>
    <property name="os.name" value="Windows XP"/>
    <property name="classworlds.conf" value="C:\Program Files\Apache Software Foundation\apache-maven-3.1.1\bin\m2.conf"/>
    <property name="sun.jnu.encoding" value="Cp1251"/>
    <property name="java.library.path" value="c:\Program Files\Java\jdk1.7.0_13\bin;C:\WINDOWS\Sun\Java\bin;C:\WINDOWS\system32;C:\WINDOWS;C:\Perl\site\bin;C:\Perl\bin;C:\Program Files\Borland\Delphi7\Bin;C:\Program Files\Borland\Delphi7\Projects\Bpl\;C:\Inprise\vbroker\bin;C:\WINDOWS\system32;C:\WINDOWS;C:\WINDOWS\System32\Wbem;C:\Program Files\Calibre2\;c:\Program Files\Java\jdk1.7.0_13\bin\;c:\eclipse\plugins\org.apache.ant_1.8.3.v20120321-1730\\bin\;c:\Program Files\Java\jdk1.7.0_13\\bin\;c:\Program Files\7-Zip\;C:\Program Files\Apache Software Foundation\apache-maven-3.1.1\bin;."/>
    <property name="java.specification.name" value="Java Platform API Specification"/>
    <property name="java.class.version" value="51.0"/>
    <property name="sun.management.compiler" value="HotSpot Client Compiler"/>
    <property name="os.version" value="5.1"/>
    <property name="user.home" value="C:\Documents and Settings\1"/>
    <property name="user.timezone" value="Europe/Helsinki"/>
    <property name="java.awt.printerjob" value="sun.awt.windows.WPrinterJob"/>
    <property name="java.specification.version" value="1.7"/>
    <property name="file.encoding" value="Cp1251"/>
    <property name="user.name" value="1"/>
    <property name="java.class.path" value="C:\Program Files\Apache Software Foundation\apache-maven-3.1.1\boot\plexus-classworlds-2.5.1.jar"/>
    <property name="org.slf4j.simpleLogger.defaultLogLevel" value="info"/>
    <property name="java.vm.specification.version" value="1.7"/>
    <property name="sun.arch.data.model" value="32"/>
    <property name="java.home" value="c:\Program Files\Java\jdk1.7.0_13\jre"/>
    <property name="sun.java.command" value="org.codehaus.plexus.classworlds.launcher.Launcher clean install"/>
    <property name="java.specification.vendor" value="Oracle Corporation"/>
    <property name="user.language" value="ru"/>
    <property name="awt.toolkit" value="sun.awt.windows.WToolkit"/>
    <property name="java.vm.info" value="mixed mode, sharing"/>
    <property name="java.version" value="1.7.0_13"/>
    <property name="java.ext.dirs" value="c:\Program Files\Java\jdk1.7.0_13\jre\lib\ext;C:\WINDOWS\Sun\Java\lib\ext"/>
    <property name="sun.boot.class.path" value="c:\Program Files\Java\jdk1.7.0_13\jre\lib\resources.jar;c:\Program Files\Java\jdk1.7.0_13\jre\lib\rt.jar;c:\Program Files\Java\jdk1.7.0_13\jre\lib\sunrsasign.jar;c:\Program Files\Java\jdk1.7.0_13\jre\lib\jsse.jar;c:\Program Files\Java\jdk1.7.0_13\jre\lib\jce.jar;c:\Program Files\Java\jdk1.7.0_13\jre\lib\charsets.jar;c:\Program Files\Java\jdk1.7.0_13\jre\lib\jfr.jar;c:\Program Files\Java\jdk1.7.0_13\jre\classes"/>
    <property name="java.vendor" value="Oracle Corporation"/>
    <property name="maven.home" value="C:\Program Files\Apache Software Foundation\apache-maven-3.1.1"/>
    <property name="file.separator" value="\"/>
    <property name="java.vendor.url.bug" value="http://bugreport.sun.com/bugreport/"/>
    <property name="sun.cpu.endian" value="little"/>
    <property name="sun.io.unicode.encoding" value="UnicodeLittle"/>
    <property name="sun.desktop" value="windows"/>
    <property name="sun.cpu.isalist" value="pentium_pro+mmx pentium_pro pentium+mmx pentium i486 i386 i86"/>
  </properties>
  <testcase time="0" classname="com.luxoft.dnepr.courses.compiler.EmulatorTest" name="testExample1"/>
  <testcase time="0" classname="com.luxoft.dnepr.courses.compiler.EmulatorTest" name="testExample2"/>
  <testcase time="0" classname="com.luxoft.dnepr.courses.compiler.EmulatorTest" name="testExample3"/>
  <testcase time="0" classname="com.luxoft.dnepr.courses.compiler.EmulatorTest" name="testAdd"/>
  <testcase time="0" classname="com.luxoft.dnepr.courses.compiler.EmulatorTest" name="testDiv"/>
  <testcase time="0" classname="com.luxoft.dnepr.courses.compiler.EmulatorTest" name="testDup"/>
  <testcase time="0" classname="com.luxoft.dnepr.courses.compiler.EmulatorTest" name="testMul"/>
  <testcase time="0" classname="com.luxoft.dnepr.courses.compiler.EmulatorTest" name="testPop"/>
  <testcase time="0" classname="com.luxoft.dnepr.courses.compiler.EmulatorTest" name="testSub"/>
  <testcase time="0" classname="com.luxoft.dnepr.courses.compiler.EmulatorTest" name="testPush"/>
  <testcase time="0" classname="com.luxoft.dnepr.courses.compiler.EmulatorTest" name="testSwap"/>
</testsuite>