-------------------------------------------------------------------------------
Test set: com.luxoft.dnepr.courses.toprank._TopRankExecutorTest
-------------------------------------------------------------------------------
Tests run: 1, Failures: 0, Errors: 0, Skipped: 0, Time elapsed: 0.11 sec
